ENGLISH
USA--> United States Of America || United States Army
============================
DANSK
============================
DEUTSCH
============================
ESPANOL
============================
FRANCAIS
============================
ITALIANO
============================
NEDERLANDS
============================
PORTUGUES
============================
SVENSKA